Tier 2 Grand Prize Ticket Bundle,Carrie,Long
Tier 2 Grand Prize Ticket Bundle,Carrie,Long
Tier 2 Grand Prize Ticket Bundle,Carrie,Long
Tier 2 Grand Prize Single Raffle Ticket,Catherine,Clausen
Tier 2 Grand Prize Ticket Bundle,Emily,Yeates
Tier 2 Grand Prize Ticket Bundle,Emily,Yeates
Tier 2 Grand Prize Ticket Bundle,Emily,Yeates
Tier 2 Grand Prize Single Raffle Ticket,Sarah,Koshko